dump.vcd
$date
	Wed Jul 26 18:46:08 2023
$end
$version
	Icarus Verilog
$end
$timescale
	1ns
$end
$scope module tb_cache_controller $end
$var wire 65 ! tb_mem_res [64:0] $end
$var wire 98 " tb_mem_req [97:0] $end
$var wire 33 # tb_cpu_res [32:0] $end
$var parameter 32 $ CLK_PERIOD $end
$var reg 1 % tb_clk $end
$var reg 66 & tb_cpu_req [65:0] $end
$var reg 1 ' tb_n_rst $end
$scope module DUT $end
$var wire 1 % clk $end
$var wire 66 ( cpu_req [65:0] $end
$var wire 1 ' n_rst $end
$var wire 65 ) mem_res [64:0] $end
$var wire 91 * cache_res [90:0] $end
$var reg 124 + cache_req [123:0] $end
$var reg 33 , cpu_res [32:0] $end
$var reg 2 - curr_state [1:0] $end
$var reg 98 . mem_req [97:0] $end
$var reg 2 / next_state [1:0] $end
$scope module CACHE_MEM $end
$var wire 124 0 cache_req [123:0] $end
$var wire 1 % clk $end
$var wire 1 1 wen0 $end
$var wire 1 2 wen1 $end
$var wire 26 3 tag_r1 [25:0] $end
$var wire 26 4 tag_r0 [25:0] $end
$var wire 1 5 lru1 $end
$var wire 1 6 hit1 $end
$var wire 1 7 hit0 $end
$var wire 64 8 data_r1 [63:0] $end
$var wire 64 9 data_r0 [63:0] $end
$var reg 91 : cache_res [90:0] $end
$scope module LRU $end
$var wire 1 % clk $end
$var wire 5 ; idx [4:0] $end
$var wire 1 5 lru1 $end
$var wire 1 < req_done $end
$var wire 1 7 hit0 $end
$scope begin $ivl_for_loop1 $end
$var integer 32 = i [31:0] $end
$upscope $end
$upscope $end
$scope module WAY0 $end
$var wire 32 > addr [31:0] $end
$var wire 1 % clk $end
$var wire 64 ? data_r [63:0] $end
$var wire 64 @ data_w [63:0] $end
$var wire 26 A tag_r [25:0] $end
$var wire 26 B tag_w [25:0] $end
$var wire 1 1 wen $end
$var wire 5 C index [4:0] $end
$var reg 1 7 hit $end
$var reg 26 D tmp [25:0] $end
$scope begin $ivl_for_loop0 $end
$var integer 32 E i [31:0] $end
$upscope $end
$scope begin HIT_LOGIC $end
$upscope $end
$upscope $end
$scope module WAY1 $end
$var wire 32 F addr [31:0] $end
$var wire 1 % clk $end
$var wire 64 G data_r [63:0] $end
$var wire 64 H data_w [63:0] $end
$var wire 26 I tag_r [25:0] $end
$var wire 26 J tag_w [25:0] $end
$var wire 1 2 wen $end
$var wire 5 K index [4:0] $end
$var reg 1 6 hit $end
$var reg 26 L tmp [25:0] $end
$scope begin $ivl_for_loop0 $end
$var integer 32 M i [31:0] $end
$upscope $end
$scope begin HIT_LOGIC $end
$upscope $end
$upscope $end
$upscope $end
$scope begin CONTROLLER_LOGIC $end
$upscope $end
$upscope $end
$scope module MAIN_MEM $end
$var wire 1 % clk $end
$var wire 98 N mem_req [97:0] $end
$var reg 65 O mem_res [64:0] $end
$var reg 1 P ready1 $end
$var reg 1 Q ready2 $end
$scope begin $ivl_for_loop2 $end
$var integer 32 R i [31:0] $end
$upscope $end
$upscope $end
$upscope $end
$enddefinitions $end
$comment Show the parameter values. $end
$dumpall
b1100100 $
$end
#0
$dumpvars
b10000000000 R
0Q
0P
b0 O
b0 N
b100000 M
b0 L
b0 K
b10000000000000000000000000 J
b0 I
b0 H
b0 G
b0 F
b100000 E
b0 D
b0 C
b10000000000000000000000000 B
b0 A
b0 @
b0 ?
b0 >
b100000 =
0<
b0 ;
b0 :
b0 9
b0 8
07
06
05
b0 4
b0 3
02
01
b1000000000000000000000000000000000000000000000000000000000000000000000000000000000000000000000000000000000000000000000000000 0
b0 /
b0 .
b0 -
b0 ,
b1000000000000000000000000000000000000000000000000000000000000000000000000000000000000000000000000000000000000000000000000000 +
b0 *
b0 )
b0 (
0'
b0 &
0%
b0 #
b0 "
b0 !
$end
#50
1%
#100
0%
#150
1%
#200
b11100 C
b11100 K
b1010101111001101111011111010101100000000000000000000000000000000 @
b1010101111001101111011111010101100000000000000000000000000000000 H
b11100100 >
b11100100 F
b11100 ;
1P
b10000000000 R
b1 /
b1000000000000000000000000000000000000000000000000000111001001010101111001101111011111010101100000000000000000000000000000000 +
b1000000000000000000000000000000000000000000000000000111001001010101111001101111011111010101100000000000000000000000000000000 0
b1000000000000000000000000111001000000000000000000000000000000000000000000000000000000000000000000 "
b1000000000000000000000000111001000000000000000000000000000000000000000000000000000000000000000000 .
b1000000000000000000000000111001000000000000000000000000000000000000000000000000000000000000000000 N
b110000000000000000000000001110010010101011110011011110111110101011 &
b110000000000000000000000001110010010101011110011011110111110101011 (
1'
0%
#250
0P
b10000000000 R
b1000000000000000000000000000000000000000000000000000111001001010101111001101111011111010101100000000000000000000000000000000 +
b1000000000000000000000000000000000000000000000000000111001001010101111001101111011111010101100000000000000000000000000000000 0
b111001000000000000000000000000000000000000000000000000000000000000000000 "
b111001000000000000000000000000000000000000000000000000000000000000000000 .
b111001000000000000000000000000000000000000000000000000000000000000000000 N
1Q
b1 -
1%
#300
0%
#350
11
b0 @
b0 H
b0 /
b1000000000000000000000000010000000000000000000000000111001000000000000000000000000000000000000000000000000000000000000000000 +
b1000000000000000000000000010000000000000000000000000111001000000000000000000000000000000000000000000000000000000000000000000 0
0Q
b10000000000000000000000000000000000000000000000000000000000000000 !
b10000000000000000000000000000000000000000000000000000000000000000 )
b10000000000000000000000000000000000000000000000000000000000000000 O
1%
#400
0%
#450
1<
b11000000000000000000000000 B
b11000000000000000000000000 J
b1010101111001101111011111010101100000000000000000000000000000000 @
b1010101111001101111011111010101100000000000000000000000000000000 H
b100000000000000000000000000000000 #
b100000000000000000000000000000000 ,
b0 !
b0 )
b0 O
b0 -
b1100000000000000000000000011000000000000000000000000111001001010101111001101111011111010101100000000000000000000000000000000 +
b1100000000000000000000000011000000000000000000000000111001001010101111001101111011111010101100000000000000000000000000000000 0
b0 /
17
b10000000000000000000000000 D
b1100000000000000000000000000000000000000000000000000000000000000000000000000000000000000000 *
b1100000000000000000000000000000000000000000000000000000000000000000000000000000000000000000 :
b10000000000000000000000000 4
b10000000000000000000000000 A
1%
#500
0%
#550
b10000000000 R
01
b111001001010101111001101111011111010101100000000000000000000000000000000 "
b111001001010101111001101111011111010101100000000000000000000000000000000 .
b111001001010101111001101111011111010101100000000000000000000000000000000 N
b11000000000000000000000000 B
b11000000000000000000000000 J
0<
02
b11000000000000000000000000 D
b1110000000000000000000000001010101111001101111011111010101100000000000000000000000000000000 *
b1110000000000000000000000001010101111001101111011111010101100000000000000000000000000000000 :
b1100000000000000000000000000000000000000000000000000111001001010101111001101111011111010101100000000000000000000000000000000 +
b1100000000000000000000000000000000000000000000000000111001001010101111001101111011111010101100000000000000000000000000000000 0
b10101011110011011110111110101011 #
b10101011110011011110111110101011 ,
15
b11000000000000000000000000 4
b11000000000000000000000000 A
b1010101111001101111011111010101100000000000000000000000000000000 9
b1010101111001101111011111010101100000000000000000000000000000000 ?
b100000000000000000000000001110010010101011110011011110111110101011 &
b100000000000000000000000001110010010101011110011011110111110101011 (
1%
#600
0%
#650
1<
b1100000000000000000000000001000000000000000000000000111001001010101111001101111011111010101100000000000000000000000000000000 +
b1100000000000000000000000001000000000000000000000000111001001010101111001101111011111010101100000000000000000000000000000000 0
b110101011110011011110111110101011 #
b110101011110011011110111110101011 ,
b10000000000000000000000001110010010101011110011011110111110101011 &
b10000000000000000000000001110010010101011110011011110111110101011 (
1%
#700
0%
#750
0<
b1100000000000000000000000000000000000000000000000000111001001010101111001101111011111010101100000000000000000000000000000000 +
b1100000000000000000000000000000000000000000000000000111001001010101111001101111011111010101100000000000000000000000000000000 0
b10101011110011011110111110101011 #
b10101011110011011110111110101011 ,
b1110010010101011110011011110111110101011 &
b1110010010101011110011011110111110101011 (
1%
#800
0%
#850
1P
b1 /
b0 *
b0 :
02
07
0<
b10101011110010101011110010101010 @
b10101011110010101011110010101010 H
b10000000000000000000000001 B
b10000000000000000000000001 J
b111100000 >
b111100000 F
b10000000000 R
b1000000000000000000000000100000000000000000000000001111000000000000000000000000000000000000010101011110010101011110010101010 +
b1000000000000000000000000100000000000000000000000001111000000000000000000000000000000000000010101011110010101011110010101010 0
b0 #
b0 ,
b1000000000000000000000001111000000000000000000000000000000000000000000000000000000000000000000000 "
b1000000000000000000000001111000000000000000000000000000000000000000000000000000000000000000000000 .
b1000000000000000000000001111000000000000000000000000000000000000000000000000000000000000000000000 N
b110000000000000000000000011110000010101011110010101011110010101010 &
b110000000000000000000000011110000010101011110010101011110010101010 (
1%
#900
0%
#950
0P
b10000000000 R
b1000000000000000000000000100000000000000000000000001111000000000000000000000000000000000000010101011110010101011110010101010 +
b1000000000000000000000000100000000000000000000000001111000000000000000000000000000000000000010101011110010101011110010101010 0
b1111000000000000000000000000000000000000000000000000000000000000000000000 "
b1111000000000000000000000000000000000000000000000000000000000000000000000 .
b1111000000000000000000000000000000000000000000000000000000000000000000000 N
1Q
b1 -
1%
#1000
0%
#1050
12
b0 @
b0 H
b0 /
b1000000000000000000000000110000000000000000000000001111000000000000000000000000000000000000000000000000000000000000000000000 +
b1000000000000000000000000110000000000000000000000001111000000000000000000000000000000000000000000000000000000000000000000000 0
0Q
b10000000000000000000000000000000000000000000000000000000000000000 !
b10000000000000000000000000000000000000000000000000000000000000000 )
b10000000000000000000000000000000000000000000000000000000000000000 O
1%
#1100
0%
#1150
1<
b11000000000000000000000001 B
b11000000000000000000000001 J
b10101011110010101011110010101010 @
b10101011110010101011110010101010 H
b100000000000000000000000000000000 #
b100000000000000000000000000000000 ,
b0 !
b0 )
b0 O
b0 -
b1100000000000000000000000111000000000000000000000001111000000000000000000000000000000000000010101011110010101011110010101010 +
b1100000000000000000000000111000000000000000000000001111000000000000000000000000000000000000010101011110010101011110010101010 0
b0 /
16
b10000000000000000000000001 L
b1100000000000000000000000010000000000000000000000000000000000000000000000000000000000000000 *
b1100000000000000000000000010000000000000000000000000000000000000000000000000000000000000000 :
b10000000000000000000000001 3
b10000000000000000000000001 I
1%
#1200
0%
#1250
0<
1P
b10 /
06
01
b1011100000 >
b11000000000000000000000010 B
b1010101111001101111011111010101111111010111110101111101000000000 @
b1011100000 F
b11000000000000000000000010 J
b1010101111001101111011111010101111111010111110101111101000000000 H
b10000000000 R
b11000000000000000000000001 L
b110000000000000000000000001010101111001101111011111010101100000000000000000000000000000000 *
b110000000000000000000000001010101111001101111011111010101100000000000000000000000000000000 :
02
b1100000000000000000000001000000000000000000000000010111000001010101111001101111011111010101111111010111110101111101000000000 +
b1100000000000000000000001000000000000000000000000010111000001010101111001101111011111010101111111010111110101111101000000000 0
b0 #
b0 ,
b11000000000000000000000000111000001010101111001101111011111010101100000000000000000000000000000000 "
b11000000000000000000000000111000001010101111001101111011111010101100000000000000000000000000000000 .
b11000000000000000000000000111000001010101111001101111011111010101100000000000000000000000000000000 N
b11000000000000000000000001 3
b11000000000000000000000001 I
b10101011110010101011110010101010 8
b10101011110010101011110010101010 G
05
b110000000000000000000000101110000011111010111110101111101000000000 &
b110000000000000000000000101110000011111010111110101111101000000000 (
1%
#1300
0%
#1350
0P
b10000000000 R
b1100000000000000000000001000000000000000000000000010111000001010101111001101111011111010101111111010111110101111101000000000 +
b1100000000000000000000001000000000000000000000000010111000001010101111001101111011111010101111111010111110101111101000000000 0
b10111000001010101111001101111011111010101100000000000000000000000000000000 "
b10111000001010101111001101111011111010101100000000000000000000000000000000 .
b10111000001010101111001101111011111010101100000000000000000000000000000000 N
1Q
b10 -
1%
#1400
0%
#1450
1P
b10000000000 R
b1 /
b11000000000000000000000010111000001010101111001101111011111010101100000000000000000000000000000000 "
b11000000000000000000000010111000001010101111001101111011111010101100000000000000000000000000000000 .
b11000000000000000000000010111000001010101111001101111011111010101100000000000000000000000000000000 N
b1100000000000000000000001000000000000000000000000010111000001010101111001101111011111010101111111010111110101111101000000000 +
b1100000000000000000000001000000000000000000000000010111000001010101111001101111011111010101111111010111110101111101000000000 0
0Q
b10000000000000000000000000000000000000000000000000000000000000000 !
b10000000000000000000000000000000000000000000000000000000000000000 )
b10000000000000000000000000000000000000000000000000000000000000000 O
1%
#1500
0%
#1550
0P
b10000000000 R
b1100000000000000000000001000000000000000000000000010111000001010101111001101111011111010101111111010111110101111101000000000 +
b1100000000000000000000001000000000000000000000000010111000001010101111001101111011111010101111111010111110101111101000000000 0
b10111000001010101111001101111011111010101100000000000000000000000000000000 "
b10111000001010101111001101111011111010101100000000000000000000000000000000 .
b10111000001010101111001101111011111010101100000000000000000000000000000000 N
1Q
b0 !
b0 )
b0 O
b1 -
1%
#1600
0%
#1650
11
b0 @
b0 H
b0 /
b1100000000000000000000001010000000000000000000000010111000000000000000000000000000000000000000000000000000000000000000000000 +
b1100000000000000000000001010000000000000000000000010111000000000000000000000000000000000000000000000000000000000000000000000 0
0Q
b10000000000000000000000000000000000000000000000000000000000000000 !
b10000000000000000000000000000000000000000000000000000000000000000 )
b10000000000000000000000000000000000000000000000000000000000000000 O
1%
#1700
0%
#1750
1<
b11111010111110101111101000000000 @
b11111010111110101111101000000000 H
b100000000000000000000000000000000 #
b100000000000000000000000000000000 ,
b0 !
b0 )
b0 O
b0 -
b10000000000 R
b1100000000000000000000001011000000000000000000000010111000000000000000000000000000000000000011111010111110101111101000000000 +
b1100000000000000000000001011000000000000000000000010111000000000000000000000000000000000000011111010111110101111101000000000 0
b10111000000000000000000000000000000000000000000000000000000000000000000000 "
b10111000000000000000000000000000000000000000000000000000000000000000000000 .
b10111000000000000000000000000000000000000000000000000000000000000000000000 N
b0 /
17
b11000000000000000000000010 D
b1110000000000000000000000100000000000000000000000000000000000000000000000000000000000000000 *
b1110000000000000000000000100000000000000000000000000000000000000000000000000000000000000000 :
b11000000000000000000000010 4
b11000000000000000000000010 A
b0 9
b0 ?
1%
#1800
0%
#1850
b10000000000 R
b10111000000000000000000000000000000000000011111010111110101111101000000000 "
b10111000000000000000000000000000000000000011111010111110101111101000000000 .
b10111000000000000000000000000000000000000011111010111110101111101000000000 N
01
0<
b1110000000000000000000000100000000000000000000000000000000011111010111110101111101000000000 *
b1110000000000000000000000100000000000000000000000000000000011111010111110101111101000000000 :
02
b1100000000000000000000001000000000000000000000000010111000000000000000000000000000000000000011111010111110101111101000000000 +
b1100000000000000000000001000000000000000000000000010111000000000000000000000000000000000000011111010111110101111101000000000 0
b11111010111110101111101000000000 #
b11111010111110101111101000000000 ,
b11111010111110101111101000000000 9
b11111010111110101111101000000000 ?
15
b100000000000000000000000101110000011111010111110101111101000000000 &
b100000000000000000000000101110000011111010111110101111101000000000 (
1%
